gisco_id,county,name,population,P1,P2,prop_P1,prop_P2
HR_00183,BJELOVARSKO-BILOGORSKA,Berek,1142,519,412,0.45446584938704027,0.3607705779334501
HR_00248,BJELOVARSKO-BILOGORSKA,Bjelovar,37948,17778,15157,0.46848318751976387,0.39941498893222305
HR_00639,BJELOVARSKO-BILOGORSKA,Čazma,7190,3504,2847,0.4873435326842837,0.3959666203059805
HR_00671,BJELOVARSKO-BILOGORSKA,Daruvar,10371,6127,4986,0.5907819882364285,0.480763667920162
HR_00710,BJELOVARSKO-BILOGORSKA,Dežanovac,2055,956,797,0.46520681265206815,0.3878345498783455
HR_01058,BJELOVARSKO-BILOGORSKA,Đulovac,2770,677,527,0.2444043321299639,0.19025270758122745
HR_01198,BJELOVARSKO-BILOGORSKA,Garešnica,8831,4352,3466,0.49280942135658473,0.3924810327256256
HR_01392,BJELOVARSKO-BILOGORSKA,Grubišno Polje,5381,2748,2238,0.5106857461438394,0.4159078238245679
HR_01449,BJELOVARSKO-BILOGORSKA,Hercegovac,1969,961,788,0.48806500761808025,0.40020314880650076
HR_01619,BJELOVARSKO-BILOGORSKA,Ivanska,2379,1010,835,0.42454812946616227,0.3509878100042034
HR_01767,BJELOVARSKO-BILOGORSKA,Kapela,2509,897,704,0.35751295336787564,0.2805898764447987
HR_01996,BJELOVARSKO-BILOGORSKA,Končanica,1898,1063,886,0.5600632244467861,0.46680716543730244
HR_02879,BJELOVARSKO-BILOGORSKA,Nova Rača,2921,985,807,0.33721328312221843,0.2762752482026703
HR_03751,BJELOVARSKO-BILOGORSKA,Rovišće,4261,1341,1105,0.31471485566768365,0.25932879605726356
HR_05649,BJELOVARSKO-BILOGORSKA,Šandrovac,1489,465,368,0.31229012760241776,0.24714573539288112
HR_05622,BJELOVARSKO-BILOGORSKA,Severin,756,275,228,0.3637566137566138,0.30158730158730157
HR_03905,BJELOVARSKO-BILOGORSKA,Sirač,1780,1023,838,0.5747191011235955,0.4707865168539326
HR_04502,BJELOVARSKO-BILOGORSKA,Štefanje,1734,722,612,0.41637831603229525,0.35294117647058826
HR_04782,BJELOVARSKO-BILOGORSKA,Velika Pisanica,1403,501,403,0.3570919458303635,0.2872416250890948
HR_05657,BJELOVARSKO-BILOGORSKA,Velika Trnovitica,1197,549,472,0.45864661654135336,0.3943191311612364
HR_04804,BJELOVARSKO-BILOGORSKA,Veliki Grđevac,2368,1106,928,0.4670608108108108,0.3918918918918919
HR_04839,BJELOVARSKO-BILOGORSKA,Veliko Trojstvo,2416,1010,803,0.41804635761589404,0.33236754966887416
HR_05665,BJELOVARSKO-BILOGORSKA,Zrinski Topolovac,786,176,145,0.22391857506361323,0.18447837150127228
HR_00108,BRODSKO-POSAVSKA,Bebrina,2885,1142,823,0.395840554592721,0.2852686308492201
HR_00396,BRODSKO-POSAVSKA,Brodski Stupnik,2476,1113,914,0.44951534733441034,0.3691437802907916
HR_05673,BRODSKO-POSAVSKA,Bukovlje,2937,1303,1058,0.4436499829758257,0.3602315287708546
HR_00469,BRODSKO-POSAVSKA,Cernik,2932,1804,1547,0.6152796725784447,0.5276261937244202
HR_00680,BRODSKO-POSAVSKA,Davor,2661,1294,1071,0.48628335212326196,0.4024802705749718
HR_00817,BRODSKO-POSAVSKA,Donji Andrijevci,3200,1536,1215,0.48,0.3796875
HR_05681,BRODSKO-POSAVSKA,Dragalić,1051,627,540,0.5965746907706946,0.5137963843958135
HR_01180,BRODSKO-POSAVSKA,Garčin,4088,1979,1574,0.48409980430528377,0.3850293542074364
HR_05690,BRODSKO-POSAVSKA,Gornja Vrba,2321,1108,871,0.47738043946574754,0.37526928048255065
HR_01279,BRODSKO-POSAVSKA,Gornji Bogićevci,1448,729,614,0.5034530386740331,0.4240331491712707
HR_01406,BRODSKO-POSAVSKA,Gundinci,1686,786,656,0.46619217081850534,0.38908659549228947
HR_01856,BRODSKO-POSAVSKA,Klakar,2089,956,788,0.45763523216850166,0.3772139779798947
HR_02844,BRODSKO-POSAVSKA,Nova Gradiška,12287,7463,6561,0.6073899243102466,0.5339790021974444
HR_02852,BRODSKO-POSAVSKA,Nova Kapela,3434,1973,1651,0.5745486313337216,0.4807804309842749
HR_02992,BRODSKO-POSAVSKA,Okučani,2361,1252,1025,0.530283778060144,0.4341380770859805
HR_03034,BRODSKO-POSAVSKA,Oprisavci,2117,1061,868,0.5011809163911195,0.41001417099669346
HR_03093,BRODSKO-POSAVSKA,Oriovac,5034,2256,1736,0.44815256257449343,0.344854986094557
HR_03387,BRODSKO-POSAVSKA,Podcrkavlje,2315,868,731,0.3749460043196544,0.31576673866090715
HR_03727,BRODSKO-POSAVSKA,Rešetari,4012,2207,1872,0.5500997008973081,0.4666001994017946
HR_03883,BRODSKO-POSAVSKA,Sibinj,5936,2861,2275,0.4819743935309973,0.38325471698113206
HR_05703,BRODSKO-POSAVSKA,Sikirevci,1991,985,765,0.49472626820693116,0.3842290306378704
HR_03964,BRODSKO-POSAVSKA,Slavonski Brod,53083,28194,23619,0.5311304937550628,0.44494470922894336
HR_03972,BRODSKO-POSAVSKA,Slavonski Šamac,1623,793,661,0.48860135551447936,0.40727048675292665
HR_04120,BRODSKO-POSAVSKA,Stara Gradiška,882,563,505,0.6383219954648526,0.572562358276644
HR_04189,BRODSKO-POSAVSKA,Staro Petrovo Selo,4184,2292,1909,0.5478011472275335,0.4562619502868069
HR_04766,BRODSKO-POSAVSKA,Velika Kopanica,2732,1297,930,0.4747437774524158,0.3404099560761347
HR_05061,BRODSKO-POSAVSKA,Vrbje,1726,927,763,0.5370799536500579,0.4420625724217845
HR_05142,BRODSKO-POSAVSKA,Vrpolje,2938,1229,909,0.4183117767188564,0.30939414567733153
HR_00256,DUBROVAČKO-NERETVANSKA,Blato,3559,1940,1639,0.54509693734195,0.46052261871312167
HR_05983,DUBROVAČKO-NERETVANSKA,Dubrovačko Primorje,1649,897,683,0.5439660400242571,0.41419041843541543
HR_00981,DUBROVAČKO-NERETVANSKA,Dubrovnik,44743,22986,17871,0.513733991909349,0.3994144335426771
HR_05991,DUBROVAČKO-NERETVANSKA,Janjina,598,302,271,0.5050167224080268,0.4531772575250836
HR_01988,DUBROVAČKO-NERETVANSKA,Konavle,8643,4425,3491,0.5119750086775425,0.40391067916232787
HR_02046,DUBROVAČKO-NERETVANSKA,Korčula,5533,3236,2697,0.5848545093077896,0.48743900234953913
HR_02194,DUBROVAČKO-NERETVANSKA,Kula Norinska,1511,682,554,0.4513567174056916,0.36664460622104567
HR_02267,DUBROVAČKO-NERETVANSKA,Lastovo,786,454,387,0.5776081424936387,0.49236641221374045
HR_06009,DUBROVAČKO-NERETVANSKA,Lumbarda,1234,522,426,0.42301458670988656,0.34521880064829824
HR_02640,DUBROVAČKO-NERETVANSKA,Metković,16296,6752,5444,0.41433480608738343,0.33406971035837013
HR_02682,DUBROVAČKO-NERETVANSKA,Mljet,1162,658,566,0.5662650602409639,0.48709122203098104
HR_03069,DUBROVAČKO-NERETVANSKA,Opuzen,3111,1515,1342,0.4869816779170685,0.43137254901960786
HR_03085,DUBROVAČKO-NERETVANSKA,Orebić,4201,1962,1506,0.46703165912877886,0.35848607474410854
HR_03352,DUBROVAČKO-NERETVANSKA,Ploče,8841,4558,3775,0.5155525393055084,0.4269878972966859
HR_03433,DUBROVAČKO-NERETVANSKA,Pojezerje,881,319,273,0.3620885357548241,0.3098751418842225
HR_03999,DUBROVAČKO-NERETVANSKA,Slivno,2024,1038,931,0.5128458498023716,0.4599802371541502
HR_04022,DUBROVAČKO-NERETVANSKA,Smokvica,885,476,383,0.5378531073446328,0.4327683615819209
HR_04197,DUBROVAČKO-NERETVANSKA,Ston,2527,1163,915,0.4602295211713494,0.3620894341115948
HR_06017,DUBROVAČKO-NERETVANSKA,Trpanj,695,387,336,0.5568345323741007,0.48345323741007196
HR_04740,DUBROVAČKO-NERETVANSKA,Vela Luka,3948,2314,1816,0.5861195542046606,0.45997973657548125
HR_05231,DUBROVAČKO-NERETVANSKA,Zažablje,540,267,189,0.49444444444444446,0.35
HR_06025,DUBROVAČKO-NERETVANSKA,Župa Dubrovačka,9082,4396,3320,0.48403435366659325,0.3655582470821405
HR_01333,GRAD ZAGREB,Zagreb,809235,430899,360806,0.5324769689892306,0.4458605967364239
HR_00051,ISTARSKA,Bale,1202,708,564,0.589018302828619,0.46921797004991683
HR_00060,ISTARSKA,Barban,2519,1350,1065,0.5359269551409289,0.42278682016673286
HR_00400,ISTARSKA,Brtonigla,1658,798,652,0.4813027744270205,0.39324487334137515
HR_00426,ISTARSKA,Buje,4878,2451,1984,0.502460024600246,0.4067240672406724
HR_00434,ISTARSKA,Buzet,6083,3481,2824,0.5722505342758507,0.46424461614335033
HR_00477,ISTARSKA,Cerovlje,1586,650,499,0.4098360655737705,0.3146279949558638
HR_06190,ISTARSKA,Fažana,3798,2030,1724,0.5344918378093734,0.45392311743022645
HR_06297,ISTARSKA,Funtana,1003,584,489,0.5822532402791625,0.48753738783649053
HR_01325,ISTARSKA,Gračišće,1379,579,445,0.41986947063089197,0.32269760696156635
HR_01384,ISTARSKA,Grožnjan,669,359,281,0.5366218236173393,0.4200298953662182
HR_01759,ISTARSKA,Kanfanar,1756,797,628,0.453872437357631,0.357630979498861
HR_05967,ISTARSKA,Karojba,1418,618,490,0.43582510578279265,0.3455571227080395
HR_05975,ISTARSKA,Kaštelir - Labinci,1518,679,505,0.44729907773386035,0.3326745718050066
HR_02178,ISTARSKA,Kršan,2852,1609,1294,0.5641654978962132,0.4537166900420757
HR_02224,ISTARSKA,Labin,10794,6982,5913,0.6468408375023161,0.547804335742079
HR_02232,ISTARSKA,Lanišće,251,141,102,0.5617529880478087,0.4063745019920319
HR_02356,ISTARSKA,Ližnjan,4767,2170,1748,0.4552129221732746,0.3666876442206839
HR_02461,ISTARSKA,Lupoglav,891,511,431,0.5735129068462402,0.4837261503928171
HR_02542,ISTARSKA,Marčana,4506,2345,1832,0.5204172214824678,0.40656901908566356
HR_02631,ISTARSKA,Medulin,7164,3865,3194,0.5395030709101061,0.44584031267448354
HR_02747,ISTARSKA,Motovun,1068,430,335,0.40262172284644193,0.3136704119850187
HR_02917,ISTARSKA,Novigrad,4752,2245,1793,0.4724326599326599,0.3773148148148148
HR_03042,ISTARSKA,Oprtalj,763,395,316,0.5176933158584535,0.41415465268676277
HR_03212,ISTARSKA,Pazin,8423,4360,3561,0.517630297993589,0.42277098420990145
HR_03301,ISTARSKA,Pićan,1756,834,671,0.47494305239179957,0.3821184510250569
HR_03484,ISTARSKA,Poreč,17833,9391,7709,0.526607973980822,0.4322884539897942
HR_03590,ISTARSKA,Pula,56349,30295,25037,0.5376315462563666,0.4443202186374204
HR_03689,ISTARSKA,Raša,2928,1778,1513,0.60724043715847,0.5167349726775956
HR_03743,ISTARSKA,Rovinj,14464,7943,6684,0.5491565265486725,0.46211283185840707
HR_04324,ISTARSKA,Sveta Nedelja,3009,1773,1484,0.5892323030907278,0.49318710535061483
HR_04316,ISTARSKA,Sveti Lovreč,1023,488,395,0.47702834799608995,0.386119257086999
HR_04332,ISTARSKA,Sveti Petar U Šumi,1065,504,396,0.4732394366197183,0.37183098591549296
HR_04359,ISTARSKA,Svetvinčenat,2258,1066,854,0.4720992028343667,0.37821080602302926
HR_06319,ISTARSKA,Tar-Vabriga,2367,1126,881,0.4757076468103084,0.3722010984368399
HR_04537,ISTARSKA,Tinjan,1743,729,576,0.41824440619621345,0.3304647160068847
HR_04685,ISTARSKA,Umag,13993,7627,6297,0.545058243407418,0.45001071964553707
HR_04979,ISTARSKA,Višnjan,2272,1021,805,0.44938380281690143,0.3543133802816901
HR_04987,ISTARSKA,Vižinada,1191,550,426,0.4617968094038623,0.35768261964735515
HR_05029,ISTARSKA,Vodnjan,6360,3058,2418,0.4808176100628931,0.38018867924528305
HR_05169,ISTARSKA,Vrsar,2147,1215,997,0.5659059152305542,0.46436888681881694
HR_05312,ISTARSKA,Žminj,3499,1484,1176,0.4241211774792798,0.3360960274364104
HR_00078,KARLOVAČKA,Barilović,2722,1247,924,0.4581190301249082,0.33945628214548124
HR_00302,KARLOVAČKA,Bosiljevo,1076,585,439,0.5436802973977695,0.4079925650557621
HR_00493,KARLOVAČKA,Cetingrad,1356,707,570,0.5213864306784661,0.42035398230088494
HR_00906,KARLOVAČKA,Draganić,2638,1099,836,0.4166034874905231,0.3169067475360121
HR_00990,KARLOVAČKA,Duga Resa,10552,5200,4098,0.4927975739196361,0.3883623957543594
HR_01201,KARLOVAČKA,Generalski Stol,2190,985,721,0.4497716894977169,0.32922374429223744
HR_01724,KARLOVAČKA,Josipdol,3441,1710,1279,0.4969485614646905,0.3716942749200814
HR_06238,KARLOVAČKA,Kamanje,788,423,351,0.5368020304568528,0.44543147208121825
HR_01791,KARLOVAČKA,Karlovac,51063,28067,22749,0.5496543485498306,0.4455084895129546
HR_02160,KARLOVAČKA,Krnjak,1388,582,462,0.41930835734870314,0.33285302593659943
HR_02259,KARLOVAČKA,Lasinja,1281,699,557,0.5456674473067916,0.4348165495706479
HR_02810,KARLOVAČKA,Netretić,2460,1152,844,0.4682926829268293,0.34308943089430893
HR_02976,KARLOVAČKA,Ogulin,12717,6824,5308,0.5366045450971141,0.41739403947471887
HR_03158,KARLOVAČKA,Ozalj,5993,3114,2513,0.5196062072417821,0.4193225429667946
HR_03336,KARLOVAČKA,Plaški,1590,726,599,0.45660377358490567,0.3767295597484277
HR_03654,KARLOVAČKA,Rakovica,2136,1121,785,0.524812734082397,0.36750936329588013
HR_05568,KARLOVAČKA,Ribnik,368,184,136,0.5,0.3695652173913043
HR_03786,KARLOVAČKA,Saborsko,421,293,244,0.6959619952494062,0.5795724465558195
HR_04006,KARLOVAČKA,Slunj,4070,2284,1782,0.5611793611793612,0.43783783783783786
HR_05576,KARLOVAČKA,Tounj,959,468,369,0.4880083420229406,0.38477580813347234
HR_05037,KARLOVAČKA,Vojnić,3852,1637,1313,0.42497403946002077,0.3408618899273105
HR_05304,KARLOVAČKA,Žakanje,1743,826,677,0.4738955823293173,0.3884107860011474
HR_01040,KOPRIVNIČKO-KRIŽEVAČKA,Đelekovec,1327,877,729,0.6608892238131123,0.549359457422758
HR_00965,KOPRIVNIČKO-KRIŽEVAČKA,Drnje,1572,782,595,0.49745547073791346,0.37849872773536897
HR_01074,KOPRIVNIČKO-KRIŽEVAČKA,Đurđevac,7686,3652,2692,0.4751496226906063,0.3502472027062191
HR_01155,KOPRIVNIČKO-KRIŽEVAČKA,Ferdinandovac,1473,652,473,0.4426340801086219,0.3211133740665309
HR_01228,KOPRIVNIČKO-KRIŽEVAČKA,Gola,2163,754,557,0.34858992140545536,0.2575127138233934
HR_06181,KOPRIVNIČKO-KRIŽEVAČKA,Gornja Rijeka,1602,578,416,0.36079900124843944,0.2596754057428215
HR_01457,KOPRIVNIČKO-KRIŽEVAČKA,Hlebine,1186,511,402,0.4308600337268128,0.33895446880269814
HR_05592,KOPRIVNIČKO-KRIŽEVAČKA,Kalinovac,1333,716,509,0.5371342835708928,0.3818454613653413
HR_05606,KOPRIVNIČKO-KRIŽEVAČKA,Kalnik,1153,486,358,0.4215091066782307,0.3104943625325238
HR_01945,KOPRIVNIČKO-KRIŽEVAČKA,Kloštar Podravski,2984,1037,782,0.3475201072386059,0.2620643431635389
HR_02011,KOPRIVNIČKO-KRIŽEVAČKA,Koprivnica,29758,17488,14264,0.5876739028160495,0.4793332885274548
HR_02020,KOPRIVNIČKO-KRIŽEVAČKA,Koprivnički Bregi,2200,989,738,0.4495454545454545,0.33545454545454545
HR_02038,KOPRIVNIČKO-KRIŽEVAČKA,Koprivnički Ivanec,1884,977,739,0.5185774946921444,0.39225053078556266
HR_02143,KOPRIVNIČKO-KRIŽEVAČKA,Križevci,19769,9916,8038,0.5015934038140523,0.40659618594769587
HR_02275,KOPRIVNIČKO-KRIŽEVAČKA,Legrad,1866,1101,906,0.590032154340836,0.4855305466237942
HR_02704,KOPRIVNIČKO-KRIŽEVAČKA,Molve,1856,858,670,0.46228448275862066,0.3609913793103448
HR_02925,KOPRIVNIČKO-KRIŽEVAČKA,Novigrad Podravski,2462,1208,967,0.49065800162469536,0.39277010560519904
HR_05614,KOPRIVNIČKO-KRIŽEVAČKA,Novo Virje,1076,420,251,0.3903345724907063,0.23327137546468402
HR_03247,KOPRIVNIČKO-KRIŽEVAČKA,Peteranec,2506,1137,869,0.4537110933758978,0.34676775738228255
HR_06165,KOPRIVNIČKO-KRIŽEVAČKA,Podravske Sesvete,1473,472,306,0.32043448744059744,0.20773930753564154
HR_03662,KOPRIVNIČKO-KRIŽEVAČKA,Rasinja,2774,1262,982,0.4549387166546503,0.35400144196106703
HR_04057,KOPRIVNIČKO-KRIŽEVAČKA,Sokolovac,2970,1364,1034,0.45925925925925926,0.34814814814814815
HR_04391,KOPRIVNIČKO-KRIŽEVAČKA,Sveti Ivan Žabno,4669,1721,1361,0.36860141357892484,0.29149710858856287
HR_04421,KOPRIVNIČKO-KRIŽEVAČKA,Sveti Petar Orehovec,4101,1462,1086,0.35649841502072666,0.2648134601316752
HR_04901,KOPRIVNIČKO-KRIŽEVAČKA,Virje,4043,1789,1372,0.44249319812020776,0.3393519663616127
HR_00116,KRAPINSKO-ZAGORSKA,Bedekovčina,7521,3778,2830,0.502326818242255,0.37627975003324027
HR_00418,KRAPINSKO-ZAGORSKA,Budinščina,2248,962,678,0.4279359430604982,0.3016014234875445
HR_00701,KRAPINSKO-ZAGORSKA,Desinić,2688,1267,1040,0.4713541666666667,0.3869047619047619
HR_00795,KRAPINSKO-ZAGORSKA,Donja Stubica,5948,2661,2092,0.4473772696704775,0.351714862138534
HR_01082,KRAPINSKO-ZAGORSKA,Đurmanec,3850,2153,1822,0.5592207792207792,0.47324675324675325
HR_01252,KRAPINSKO-ZAGORSKA,Gornja Stubica,4695,2136,1630,0.4549520766773163,0.34717784877529284
HR_01465,KRAPINSKO-ZAGORSKA,Hrašćina,1415,710,491,0.5017667844522968,0.3469964664310954
HR_01520,KRAPINSKO-ZAGORSKA,Hum Na Sutli,4628,2275,1932,0.49157303370786515,0.41745894554883317
HR_05525,KRAPINSKO-ZAGORSKA,Jesenje,1406,807,666,0.5739687055476529,0.47368421052631576
HR_01872,KRAPINSKO-ZAGORSKA,Klanjec,2628,1526,1232,0.5806697108066972,0.4687975646879756
HR_02003,KRAPINSKO-ZAGORSKA,Konjščina,3435,1844,1447,0.5368267831149928,0.4212518195050946
HR_02089,KRAPINSKO-ZAGORSKA,Kraljevec Na Sutli,1549,767,603,0.49515816655907036,0.3892834086507424
HR_02119,KRAPINSKO-ZAGORSKA,Krapina,11816,7118,5925,0.6024035206499662,0.5014387271496277
HR_02127,KRAPINSKO-ZAGORSKA,Krapinske Toplice,5016,2860,2351,0.5701754385964912,0.4687001594896332
HR_05533,KRAPINSKO-ZAGORSKA,Kumrovec,1432,951,791,0.6641061452513967,0.5523743016759777
HR_02364,KRAPINSKO-ZAGORSKA,Lobor,3155,1352,1029,0.42852614896988905,0.326148969889065
HR_02488,KRAPINSKO-ZAGORSKA,Mače,2287,1142,893,0.49934411893310016,0.3904678618277219
HR_02569,KRAPINSKO-ZAGORSKA,Marija Bistrica,5619,2885,2258,0.5134365545470725,0.40185086314290797
HR_02658,KRAPINSKO-ZAGORSKA,Mihovljan,1717,952,764,0.5544554455445545,0.44496214327315087
HR_05541,KRAPINSKO-ZAGORSKA,Novi Golubovec,884,456,371,0.5158371040723982,0.41968325791855204
HR_03115,KRAPINSKO-ZAGORSKA,Oroslavje,5951,3255,2562,0.5469668963199462,0.4305158796840867
HR_03298,KRAPINSKO-ZAGORSKA,Petrovsko,2370,1240,954,0.5232067510548524,0.40253164556962023
HR_03522,KRAPINSKO-ZAGORSKA,Pregrada,5988,2959,2286,0.4941549766199065,0.3817635270541082
HR_03646,KRAPINSKO-ZAGORSKA,Radoboj,3014,1812,1474,0.6011944260119443,0.48905109489051096
HR_04227,KRAPINSKO-ZAGORSKA,Stubičke Toplice,2841,1575,1284,0.5543822597676874,0.45195353748680045
HR_04308,KRAPINSKO-ZAGORSKA,Sveti Križ Začretje,5966,3234,2628,0.5420717398592021,0.44049614482065036
HR_04669,KRAPINSKO-ZAGORSKA,Tuhelj,2065,1013,810,0.49055690072639224,0.3922518159806295
HR_04812,KRAPINSKO-ZAGORSKA,Veliko Trgovišće,4685,2426,1957,0.5178228388473852,0.4177161152614728
HR_05193,KRAPINSKO-ZAGORSKA,Zabok,8766,5186,4176,0.5916039242527948,0.47638603696098564
HR_05215,KRAPINSKO-ZAGORSKA,Zagorska Sela,879,497,407,0.565415244596132,0.4630261660978385
HR_05266,KRAPINSKO-ZAGORSKA,Zlatar,5586,2804,2115,0.501969208736126,0.378625134264232
HR_05274,KRAPINSKO-ZAGORSKA,Zlatar-Bistrica,2359,1223,987,0.5184400169563375,0.41839762611275966
HR_00370,LIČKO-SENJSKA,Brinje,2579,956,669,0.3706863125242342,0.25940286932919737
HR_00841,LIČKO-SENJSKA,Donji Lapac,1386,858,596,0.6190476190476191,0.43001443001443
HR_01309,LIČKO-SENJSKA,Gospić,11761,5416,3711,0.4605050590936145,0.31553439333390015
HR_01783,LIČKO-SENJSKA,Karlobag,854,487,366,0.5702576112412178,0.42857142857142855
HR_02402,LIČKO-SENJSKA,Lovinac,810,477,340,0.5888888888888889,0.41975308641975306
HR_02887,LIČKO-SENJSKA,Novalja,4109,2204,1890,0.5363835483085909,0.4599659284497445
HR_03131,LIČKO-SENJSKA,Otočac,8842,3876,2461,0.438362361456684,0.2783306944130287
HR_03239,LIČKO-SENJSKA,Perušić,2012,938,639,0.4662027833001988,0.31759443339960236
HR_04553,LIČKO-SENJSKA,Plitvička Jezera,3493,1920,1407,0.5496707701116519,0.4028056112224449
HR_03875,LIČKO-SENJSKA,Senj,6162,3343,2623,0.5425186627718274,0.42567348263550797
HR_04677,LIČKO-SENJSKA,Udbina,1356,718,471,0.5294985250737463,0.3473451327433628
HR_05126,LIČKO-SENJSKA,Vrhovine,982,251,176,0.2556008146639511,0.17922606924643583
HR_00159,MEĐIMURSKA,Belica,2850,1751,1478,0.6143859649122807,0.5185964912280702
HR_00604,MEĐIMURSKA,Čakovec,27757,16375,13838,0.5899412760745038,0.4985409085996325
HR_06033,MEĐIMURSKA,Dekanovec,704,408,344,0.5795454545454546,0.48863636363636365
HR_00752,MEĐIMURSKA,Domašinec,1975,1118,936,0.5660759493670886,0.4739240506329114
HR_00787,MEĐIMURSKA,Donja Dubrava,1678,973,829,0.5798569725864124,0.4940405244338498
HR_00825,MEĐIMURSKA,Donji Kraljevec,4274,2304,1928,0.5390734674777726,0.4510996724379972
HR_00892,MEĐIMURSKA,Donji Vidovec,1223,690,570,0.5641864268192968,0.4660670482420278
HR_01236,MEĐIMURSKA,Goričan,2512,1293,987,0.5147292993630573,0.3929140127388535
HR_06041,MEĐIMURSKA,Gornji Mihaljevec,1794,895,733,0.49888517279821626,0.40858416945373466
HR_02062,MEĐIMURSKA,Kotoriba,3158,1429,1192,0.45250158328055734,0.37745408486383786
HR_02500,MEĐIMURSKA,Mala Subotica,4463,2392,1999,0.5359623571588618,0.44790499663903205
HR_02763,MEĐIMURSKA,Mursko Središće,5985,3137,2690,0.5241436925647452,0.4494569757727652
HR_02798,MEĐIMURSKA,Nedelišće,11740,6022,5060,0.5129471890971039,0.43100511073253833
HR_06050,MEĐIMURSKA,Orehovica,2862,936,751,0.3270440251572327,0.26240391334730956
HR_03425,MEĐIMURSKA,Podturen,3390,1950,1665,0.5752212389380531,0.4911504424778761
HR_03557,MEĐIMURSKA,Prelog,7546,4083,3375,0.5410813676119799,0.44725682480784523
HR_06203,MEĐIMURSKA,Pribislavec,3144,1465,1152,0.46596692111959287,0.366412213740458
HR_03859,MEĐIMURSKA,Selnica,2776,1454,1221,0.5237752161383286,0.43984149855907784
HR_06084,MEĐIMURSKA,Šenkovec,2847,1679,1432,0.5897435897435898,0.5029855988760098
HR_06068,MEĐIMURSKA,Strahoninec,2637,1638,1407,0.621160409556314,0.5335608646188851
HR_04529,MEĐIMURSKA,Štrigova,2547,1266,1068,0.49705535924617195,0.4193168433451119
HR_06076,MEĐIMURSKA,Sveta Marija,2113,1240,1033,0.5868433506862281,0.48887837198296263
HR_04405,MEĐIMURSKA,Sveti Juraj Na Bregu,4956,2700,2185,0.5447941888619855,0.44087974172719935
HR_04413,MEĐIMURSKA,Sveti Martin Na Muri,2448,1368,1171,0.5588235294117647,0.4783496732026144
HR_05045,MEĐIMURSKA,Vratišinec,1751,998,810,0.5699600228440891,0.46259280411193604
HR_00027,OSJEČKO-BARANJSKA,Antunovac,3506,1963,1528,0.5598973188819167,0.43582430119794635
HR_00132,OSJEČKO-BARANJSKA,Beli Manastir,8235,4885,4084,0.5931997571341834,0.4959319975713418
HR_00167,OSJEČKO-BARANJSKA,Belišće,9435,4730,3900,0.5013248542660307,0.4133545310015898
HR_00213,OSJEČKO-BARANJSKA,Bilje,4797,2981,2499,0.6214300604544507,0.5209505941213258
HR_00230,OSJEČKO-BARANJSKA,Bizovac,3935,1971,1562,0.5008894536213468,0.3969504447268107
HR_00647,OSJEČKO-BARANJSKA,Čeminac,2474,1525,1214,0.616410670978173,0.49070331447049315
HR_00655,OSJEČKO-BARANJSKA,Čepin,10092,5166,4121,0.5118906064209274,0.40834324217201745
HR_01031,OSJEČKO-BARANJSKA,Đakovo,25063,12185,9316,0.48617483940470013,0.371703307664685
HR_00663,OSJEČKO-BARANJSKA,Darda,5823,3031,2500,0.5205220676627168,0.429331959471063
HR_05762,OSJEČKO-BARANJSKA,Donja Motičina,1386,665,463,0.4797979797979798,0.33405483405483405
HR_00868,OSJEČKO-BARANJSKA,Donji Miholjac,8432,4546,3502,0.5391366223908919,0.4153225806451613
HR_00914,OSJEČKO-BARANJSKA,Draž,1971,1190,926,0.6037544393708777,0.4698122780314561
HR_00949,OSJEČKO-BARANJSKA,Drenje,2207,1034,742,0.4685092886270956,0.33620299048482105
HR_01066,OSJEČKO-BARANJSKA,Đurđenovac,5576,2895,2186,0.5191893830703013,0.39203730272596843
HR_01104,OSJEČKO-BARANJSKA,Erdut,5665,3270,2625,0.5772285966460724,0.46337157987643424
HR_01112,OSJEČKO-BARANJSKA,Ernestinovo,1865,1129,904,0.6053619302949061,0.48471849865951744
HR_01163,OSJEČKO-BARANJSKA,Feričanci,1818,968,767,0.5324532453245324,0.4218921892189219
HR_01244,OSJEČKO-BARANJSKA,Gorjani,1367,692,534,0.5062179956108266,0.39063643013899046
HR_06092,OSJEČKO-BARANJSKA,Jagodnjak,1641,821,731,0.5003046922608165,0.445460085313833
HR_01953,OSJEČKO-BARANJSKA,Kneževi Vinogradi,3609,1984,1594,0.5497367691881407,0.4416735937932945
HR_02054,OSJEČKO-BARANJSKA,Koška,3350,1400,1006,0.417910447761194,0.30029850746268655
HR_02305,OSJEČKO-BARANJSKA,Levanjska Varoš,973,355,264,0.3648509763617677,0.27132579650565264
HR_05789,OSJEČKO-BARANJSKA,Magadenovac,1665,764,574,0.45885885885885885,0.34474474474474476
HR_02577,OSJEČKO-BARANJSKA,Marijanci,2076,968,732,0.4662813102119461,0.35260115606936415
HR_02780,OSJEČKO-BARANJSKA,Našice,15180,7701,5978,0.5073122529644268,0.3938076416337286
HR_03123,OSJEČKO-BARANJSKA,Osijek,101117,58208,48179,0.5756499896159893,0.47646785407003767
HR_03255,OSJEČKO-BARANJSKA,Petlovac,1861,1020,806,0.5480924234282644,0.4331004836109619
HR_03271,OSJEČKO-BARANJSKA,Petrijevci,2606,1287,1037,0.49386032233307753,0.39792785878741366
HR_03409,OSJEČKO-BARANJSKA,Podgorač,2508,1005,793,0.4007177033492823,0.31618819776714513
HR_02712,OSJEČKO-BARANJSKA,Podravska Moslavina,949,460,343,0.48472075869336145,0.36143308746048475
HR_03468,OSJEČKO-BARANJSKA,Popovac,1438,898,717,0.6244784422809457,0.49860917941585536
HR_03611,OSJEČKO-BARANJSKA,Punitovci,1587,704,557,0.4436042848141147,0.35097668557025835
HR_03816,OSJEČKO-BARANJSKA,Satnica Đakovačka,1863,891,620,0.4782608695652174,0.33279656468062263
HR_03867,OSJEČKO-BARANJSKA,Semeljci,3808,1849,1371,0.4855567226890756,0.360031512605042
HR_06149,OSJEČKO-BARANJSKA,Šodolovci,1278,639,525,0.5,0.4107981220657277
HR_04219,OSJEČKO-BARANJSKA,Strizivojna,2197,744,546,0.33864360491579426,0.2485207100591716
HR_04618,OSJEČKO-BARANJSKA,Trnava,1305,540,401,0.41379310344827586,0.30727969348659
HR_04715,OSJEČKO-BARANJSKA,Valpovo,10339,5487,4565,0.5307089660508754,0.4415320630621917
HR_04855,OSJEČKO-BARANJSKA,Viljevo,1732,865,631,0.49942263279445726,0.3643187066974596
HR_04944,OSJEČKO-BARANJSKA,Viškovci,1604,821,582,0.5118453865336658,0.3628428927680798
HR_05797,OSJEČKO-BARANJSKA,Vladislavci,1560,781,622,0.5006410256410256,0.39871794871794874
HR_05177,OSJEČKO-BARANJSKA,Vuka,984,520,379,0.5284552845528455,0.3851626016260163
HR_00353,POŽEŠKO-SLAVONSKA,Brestovac,2970,1590,1248,0.5353535353535354,0.4202020202020202
HR_00582,POŽEŠKO-SLAVONSKA,Čaglin,2558,1019,814,0.3983580922595778,0.31821735731039874
HR_01643,POŽEŠKO-SLAVONSKA,Jakšić,3484,1692,1314,0.4856486796785304,0.37715269804822044
HR_01775,POŽEŠKO-SLAVONSKA,Kaptol,2665,1395,1037,0.5234521575984991,0.38911819887429644
HR_02216,POŽEŠKO-SLAVONSKA,Kutjevo,4985,2692,2164,0.5400200601805416,0.4341023069207623
HR_02313,POŽEŠKO-SLAVONSKA,Lipik,5038,2636,2077,0.5232235013894403,0.41226677252878124
HR_03182,POŽEŠKO-SLAVONSKA,Pakrac,6607,4211,3474,0.6373543211745119,0.525805963372181
HR_03344,POŽEŠKO-SLAVONSKA,Pleternica,9382,4627,3629,0.4931784267746749,0.3868045192922618
HR_03514,POŽEŠKO-SLAVONSKA,Požega,23155,13277,10577,0.5733966745843231,0.4567911898078169
HR_04758,POŽEŠKO-SLAVONSKA,Velika,4770,2358,1847,0.49433962264150944,0.3872117400419287
HR_00043,PRIMORSKO-GORANSKA,Bakar,8160,4586,3723,0.5620098039215686,0.45625
HR_00086,PRIMORSKO-GORANSKA,Baška,1706,1134,985,0.6647127784290738,0.5773739742086753
HR_00388,PRIMORSKO-GORANSKA,Brod Moravice,707,381,308,0.5388967468175389,0.43564356435643564
HR_00558,PRIMORSKO-GORANSKA,Čabar,3131,1731,1524,0.5528585116576173,0.48674544873842224
HR_00612,PRIMORSKO-GORANSKA,Čavle,7312,3877,3157,0.5302242888402626,0.43175601750547044
HR_00523,PRIMORSKO-GORANSKA,Cres,2907,1753,1511,0.6030271757825938,0.5197798417612659
HR_00531,PRIMORSKO-GORANSKA,Crikvenica,10692,6061,5158,0.5668724279835391,0.482416760194538
HR_00698,PRIMORSKO-GORANSKA,Delnice,5437,2946,2485,0.5418429280853412,0.4570535221629575
HR_00744,PRIMORSKO-GORANSKA,Dobrinj,2440,1512,1273,0.6196721311475409,0.5217213114754098
HR_01171,PRIMORSKO-GORANSKA,Fužine,1395,878,734,0.6293906810035842,0.5261648745519714
HR_01708,PRIMORSKO-GORANSKA,Jelenje,5309,2756,2187,0.5191184780561311,0.4119419853079676
HR_01805,PRIMORSKO-GORANSKA,Kastav,11021,6014,5025,0.5456855094818982,0.4559477361400962
HR_01864,PRIMORSKO-GORANSKA,Klana,1919,1079,910,0.5622720166753518,0.47420531526836895
HR_05380,PRIMORSKO-GORANSKA,Kostrena,4564,2709,2195,0.593558282208589,0.48093777388255915
HR_02097,PRIMORSKO-GORANSKA,Kraljevica,4412,2448,2011,0.5548504079782411,0.4558023572076156
HR_02151,PRIMORSKO-GORANSKA,Krk,7030,3869,3266,0.5503556187766714,0.46458036984352774
HR_02372,PRIMORSKO-GORANSKA,Lokve,893,549,467,0.6147816349384099,0.522956326987682
HR_06246,PRIMORSKO-GORANSKA,Lopar,1275,735,643,0.5764705882352941,0.504313725490196
HR_02429,PRIMORSKO-GORANSKA,Lovran,3721,2219,1908,0.596345068529965,0.5127653856490191
HR_02526,PRIMORSKO-GORANSKA,Mali Lošinj,7876,4433,3716,0.5628491620111732,0.4718131030980193
HR_02534,PRIMORSKO-GORANSKA,Malinska-Dubašnica,3600,2024,1663,0.5622222222222222,0.46194444444444444
HR_02615,PRIMORSKO-GORANSKA,Matulji,11164,6308,5269,0.5650304550340379,0.4719634539591544
HR_02739,PRIMORSKO-GORANSKA,Mošćenička Draga,1384,879,763,0.6351156069364162,0.5513005780346821
HR_02755,PRIMORSKO-GORANSKA,Mrkopalj,929,602,486,0.6480086114101185,0.5231431646932185
HR_02909,PRIMORSKO-GORANSKA,Novi Vinodolski,4783,2618,2185,0.5473552163913862,0.4568262596696634
HR_03018,PRIMORSKO-GORANSKA,Omišalj,3090,1820,1577,0.5889967637540453,0.5103559870550162
HR_03026,PRIMORSKO-GORANSKA,Opatija,11042,6634,5678,0.6007969570729941,0.5142184386886434
HR_03603,PRIMORSKO-GORANSKA,Punat,1992,1192,1030,0.5983935742971888,0.5170682730923695
HR_03638,PRIMORSKO-GORANSKA,Rab,7850,4636,3966,0.5905732484076434,0.5052229299363057
HR_03697,PRIMORSKO-GORANSKA,Ravna Gora,2061,1281,1070,0.6215429403202329,0.5191654536632703
HR_03735,PRIMORSKO-GORANSKA,Rijeka,115995,66133,55509,0.5701366438208544,0.47854648907280484
HR_03930,PRIMORSKO-GORANSKA,Skrad,868,601,516,0.6923963133640553,0.5944700460829493
HR_04880,PRIMORSKO-GORANSKA,Vinodolska Općina,3264,1875,1555,0.5744485294117647,0.47640931372549017
HR_04952,PRIMORSKO-GORANSKA,Viškovo,16726,8370,6757,0.5004185101040296,0.4039818247040536
HR_05070,PRIMORSKO-GORANSKA,Vrbnik,1227,797,689,0.6495517522412388,0.5615321923390383
HR_05096,PRIMORSKO-GORANSKA,Vrbovsko,4063,2357,1716,0.5801132168348511,0.4223480187053901
HR_06211,ŠIBENSKO-KNINSKA,Bilice,2559,912,730,0.3563892145369285,0.28526768268855024
HR_03107,ŠIBENSKO-KNINSKA,Biskupija,979,481,425,0.491317671092952,0.4341164453524004
HR_00515,ŠIBENSKO-KNINSKA,Civljane,129,72,63,0.5581395348837209,0.4883720930232558
HR_00957,ŠIBENSKO-KNINSKA,Drniš,6126,2587,2077,0.42229840026118187,0.33904668625530526
HR_01139,ŠIBENSKO-KNINSKA,Ervenik,572,197,163,0.34440559440559443,0.28496503496503495
HR_01830,ŠIBENSKO-KNINSKA,Kijevo,256,134,107,0.5234375,0.41796875
HR_01848,ŠIBENSKO-KNINSKA,Kistanje,2591,903,780,0.34851408722500965,0.30104206869934386
HR_01961,ŠIBENSKO-KNINSKA,Knin,11513,5457,4570,0.47398592894988273,0.3969425866411882
HR_06173,ŠIBENSKO-KNINSKA,Murter-Kornati,2113,996,805,0.4713677236157123,0.3809749171793658
HR_05819,ŠIBENSKO-KNINSKA,Pirovac,1956,845,731,0.4320040899795501,0.37372188139059304
HR_03573,ŠIBENSKO-KNINSKA,Primošten,2774,1198,1016,0.43186733958183127,0.36625811103100214
HR_02984,ŠIBENSKO-KNINSKA,Promina,975,383,301,0.39282051282051283,0.3087179487179487
HR_05827,ŠIBENSKO-KNINSKA,Rogoznica,2362,1208,1057,0.5114309906858594,0.44750211685012703
HR_03778,ŠIBENSKO-KNINSKA,Ružić,1299,460,358,0.35411855273287146,0.27559661277906083
HR_04448,ŠIBENSKO-KNINSKA,Šibenik,44275,20003,16519,0.45178994918125354,0.37309994353472614
HR_03948,ŠIBENSKO-KNINSKA,Skradin,3064,1321,1073,0.43113577023498695,0.3501958224543081
HR_04545,ŠIBENSKO-KNINSKA,Tisno,3124,1579,1184,0.5054417413572343,0.37900128040973113
HR_06262,ŠIBENSKO-KNINSKA,Tribunj,1656,708,626,0.427536231884058,0.3780193236714976
HR_04693,ŠIBENSKO-KNINSKA,Unešić,1231,539,428,0.437855402112104,0.3476848090982941
HR_05002,ŠIBENSKO-KNINSKA,Vodice,9345,3633,2955,0.3887640449438202,0.3162118780096308
HR_00833,SISAČKO-MOSLAVAČKA,Donji Kukuruzari,1072,517,447,0.4822761194029851,0.41697761194029853
HR_01023,SISAČKO-MOSLAVAČKA,Dvor,3413,1628,1428,0.476999707002637,0.4184002343978904
HR_01210,SISAČKO-MOSLAVAČKA,Glina,6718,3128,2572,0.4656147662994939,0.38285203929740996
HR_05100,SISAČKO-MOSLAVAČKA,Gvozd,1863,924,818,0.49597423510466987,0.43907675791733763
HR_01490,SISAČKO-MOSLAVAČKA,Hrvatska Dubica,1465,763,586,0.5208191126279863,0.4
HR_01503,SISAČKO-MOSLAVAČKA,Hrvatska Kostajnica,1967,1104,989,0.5612608032536858,0.5027961362480935
HR_01686,SISAČKO-MOSLAVAČKA,Jasenovac,1500,860,715,0.5733333333333334,0.4766666666666667
HR_02208,SISAČKO-MOSLAVAČKA,Kutina,20359,10117,8899,0.49693010462203446,0.43710398349624247
HR_02283,SISAČKO-MOSLAVAČKA,Lekenik,5716,2709,2275,0.4739328201539538,0.39800559832050386
HR_02321,SISAČKO-MOSLAVAČKA,Lipovljani,3018,1347,1201,0.4463220675944334,0.3979456593770709
HR_05550,SISAČKO-MOSLAVAČKA,Majur,832,417,349,0.5012019230769231,0.41947115384615385
HR_02593,SISAČKO-MOSLAVAČKA,Martinska Ves,2947,1357,1170,0.4604682728198168,0.3970139124533424
HR_02933,SISAČKO-MOSLAVAČKA,Novska,11455,5370,4517,0.4687909209951986,0.394325621999127
HR_03280,SISAČKO-MOSLAVAČKA,Petrinja,20423,9855,8505,0.4825441903735984,0.4164422464868041
HR_03476,SISAČKO-MOSLAVAČKA,Popovača,10860,5074,4380,0.467219152854512,0.40331491712707185
HR_03913,SISAČKO-MOSLAVAČKA,Sisak,42326,22879,19920,0.5405424561735104,0.47063270802816237
HR_04260,SISAČKO-MOSLAVAČKA,Sunja,3981,1879,1723,0.4719919618186385,0.43280582768148707
HR_04570,SISAČKO-MOSLAVAČKA,Topusko,2272,1325,1166,0.5831866197183099,0.5132042253521126
HR_04774,SISAČKO-MOSLAVAČKA,Velika Ludina,2412,1156,969,0.4792703150912106,0.4017412935323383
HR_00094,SPLITSKO-DALMATINSKA,Baška Voda,2838,1421,1188,0.5007047216349542,0.4186046511627907
HR_00272,SPLITSKO-DALMATINSKA,Bol,1795,800,682,0.4456824512534819,0.37994428969359334
HR_00779,SPLITSKO-DALMATINSKA,Brela,1663,846,737,0.5087191822008419,0.44317498496692725
HR_00507,SPLITSKO-DALMATINSKA,Cista Provo,1774,680,520,0.3833145434047351,0.29312288613303267
HR_00728,SPLITSKO-DALMATINSKA,Dicmo,3133,900,600,0.2872646026172997,0.19150973507819982
HR_01007,SPLITSKO-DALMATINSKA,Dugi Rat,6981,2778,2163,0.3979372582724538,0.309840996991835
HR_05851,SPLITSKO-DALMATINSKA,Dugopolje,3892,1209,862,0.3106372045220966,0.22147995889003083
HR_01341,SPLITSKO-DALMATINSKA,Gradac,2820,1448,1198,0.5134751773049645,0.424822695035461
HR_01481,SPLITSKO-DALMATINSKA,Hrvace,2891,1098,864,0.37979937737806985,0.298858526461432
HR_01538,SPLITSKO-DALMATINSKA,Hvar,4493,2400,1999,0.5341642555085688,0.4449143111506788
HR_01554,SPLITSKO-DALMATINSKA,Imotski,9972,3434,2655,0.3443642198154834,0.26624548736462095
HR_01716,SPLITSKO-DALMATINSKA,Jelsa,3790,2094,1817,0.5525065963060686,0.4794195250659631
HR_01813,SPLITSKO-DALMATINSKA,Kaštela,40894,14052,10743,0.34362009096689,0.2627035750965912
HR_01929,SPLITSKO-DALMATINSKA,Klis,5367,1977,1522,0.3683622135271101,0.2835848705049376
HR_01970,SPLITSKO-DALMATINSKA,Komiža,1484,981,838,0.6610512129380054,0.5646900269541779
HR_05860,SPLITSKO-DALMATINSKA,Lećevica,429,194,156,0.4522144522144522,0.36363636363636365
HR_05878,SPLITSKO-DALMATINSKA,Lokvičići,537,254,201,0.4729981378026071,0.3743016759776536
HR_02437,SPLITSKO-DALMATINSKA,Lovreć,1334,503,380,0.3770614692653673,0.2848575712143928
HR_02496,SPLITSKO-DALMATINSKA,Makarska,14362,7336,5970,0.5107923687508703,0.4156802673722323
HR_02585,SPLITSKO-DALMATINSKA,Marina,4644,1774,1463,0.38199827734711456,0.31503014642549526
HR_02674,SPLITSKO-DALMATINSKA,Milna,1198,699,602,0.5834724540901502,0.5025041736227045
HR_00876,SPLITSKO-DALMATINSKA,Muć,3586,1056,828,0.294478527607362,0.2308979364194088
HR_02801,SPLITSKO-DALMATINSKA,Nerežišća,910,399,311,0.43846153846153846,0.34175824175824177
HR_05886,SPLITSKO-DALMATINSKA,Okrug,3523,1489,1218,0.422651149588419,0.34572807266534206
HR_03000,SPLITSKO-DALMATINSKA,Omiš,14661,6077,4852,0.41450105722665576,0.33094604733647093
HR_03140,SPLITSKO-DALMATINSKA,Otok,5190,1372,969,0.26435452793834296,0.18670520231213872
HR_03379,SPLITSKO-DALMATINSKA,Podbablje,4306,1495,1166,0.34718996748722714,0.2707849512308407
HR_03395,SPLITSKO-DALMATINSKA,Podgora,2487,1250,1047,0.5026135906714918,0.4209891435464415
HR_03417,SPLITSKO-DALMATINSKA,Podstrana,11827,3692,2848,0.3121670753360954,0.24080493785406273
HR_03506,SPLITSKO-DALMATINSKA,Postira,1626,741,604,0.45571955719557194,0.3714637146371464
HR_05894,SPLITSKO-DALMATINSKA,Prgomet,518,191,148,0.3687258687258687,0.2857142857142857
HR_05908,SPLITSKO-DALMATINSKA,Primorski Dolac,710,211,165,0.2971830985915493,0.2323943661971831
HR_00884,SPLITSKO-DALMATINSKA,Proložac,3168,1198,960,0.37815656565656564,0.30303030303030304
HR_03581,SPLITSKO-DALMATINSKA,Pučišća,2087,857,734,0.41063727839003356,0.3517010062290369
HR_05916,SPLITSKO-DALMATINSKA,Runovići,2104,874,727,0.41539923954372626,0.345532319391635
HR_03824,SPLITSKO-DALMATINSKA,Seget,4655,1900,1609,0.40816326530612246,0.3456498388829216
HR_03832,SPLITSKO-DALMATINSKA,Selca,1750,797,658,0.4554285714285714,0.376
HR_04430,SPLITSKO-DALMATINSKA,Šestanovac,1707,620,496,0.36321031048623315,0.29056824838898654
HR_03891,SPLITSKO-DALMATINSKA,Sinj,24348,8564,6573,0.3517332019057007,0.26996057171020205
HR_04065,SPLITSKO-DALMATINSKA,Solin,26578,9368,7137,0.3524719692979156,0.2685303634584995
HR_04472,SPLITSKO-DALMATINSKA,Šolta,2234,1304,1076,0.5837063563115488,0.4816472694717995
HR_04090,SPLITSKO-DALMATINSKA,Split,169577,75628,60205,0.44598029213867446,0.35503045813996004
HR_04138,SPLITSKO-DALMATINSKA,Stari Grad,2887,1596,1359,0.5528229996536197,0.47073086248701074
HR_04235,SPLITSKO-DALMATINSKA,Sućuraj,472,283,259,0.5995762711864406,0.548728813559322
HR_04278,SPLITSKO-DALMATINSKA,Supetar,4457,2339,1945,0.5247924612968364,0.43639219205743773
HR_05924,SPLITSKO-DALMATINSKA,Sutivan,967,563,506,0.5822130299896587,0.5232678386763185
HR_04600,SPLITSKO-DALMATINSKA,Trilj,8251,2738,2126,0.33183856502242154,0.2576657374863653
HR_04634,SPLITSKO-DALMATINSKA,Trogir,12944,5405,4480,0.41756798516687266,0.34610630407911
HR_05932,SPLITSKO-DALMATINSKA,Tučepi,1956,988,799,0.5051124744376279,0.40848670756646216
HR_04928,SPLITSKO-DALMATINSKA,Vis,2068,1275,1137,0.6165377176015474,0.5498065764023211
HR_05118,SPLITSKO-DALMATINSKA,Vrgorac,5570,2767,2390,0.49676840215439855,0.42908438061041293
HR_05134,SPLITSKO-DALMATINSKA,Vrlika,1714,674,563,0.39323220536756126,0.32847141190198365
HR_05959,SPLITSKO-DALMATINSKA,Zadvarje,283,110,82,0.38869257950530034,0.28975265017667845
HR_05223,SPLITSKO-DALMATINSKA,Zagvozd,960,359,267,0.37395833333333334,0.278125
HR_05282,SPLITSKO-DALMATINSKA,Zmijavci,1781,635,498,0.3565412689500281,0.27961819202695115
HR_00124,VARAŽDINSKA,Bednja,3420,1721,1461,0.5032163742690059,0.42719298245614035
HR_00191,VARAŽDINSKA,Beretinec,2094,1312,1130,0.626552053486151,0.5396370582617
HR_00361,VARAŽDINSKA,Breznica,2020,902,634,0.44653465346534654,0.31386138613861386
HR_01511,VARAŽDINSKA,Breznički Hum,1211,674,492,0.5565648224607762,0.40627580511973577
HR_00485,VARAŽDINSKA,Cestica,5618,2608,2150,0.46422214311142757,0.38269846920612316
HR_00809,VARAŽDINSKA,Donja Voća,2035,936,724,0.45995085995085994,0.35577395577395576
HR_01295,VARAŽDINSKA,Gornji Kneginec,5002,2954,2536,0.5905637744902039,0.5069972011195522
HR_01562,VARAŽDINSKA,Ivanec,13080,7647,6491,0.5846330275229358,0.4962538226299694
HR_01651,VARAŽDINSKA,Jalžabet,3758,1690,1389,0.4497072911122938,0.36961149547631716
HR_01899,VARAŽDINSKA,Klenovnik,1848,1037,870,0.5611471861471862,0.4707792207792208
HR_02291,VARAŽDINSKA,Lepoglava,7450,3426,2895,0.45986577181208055,0.38859060402684564
HR_02470,VARAŽDINSKA,Ljubešćica,1686,922,734,0.5468564650059312,0.43534994068801897
HR_02445,VARAŽDINSKA,Ludbreg,8631,4737,3849,0.5488355926312131,0.445950643030935
HR_02518,VARAŽDINSKA,Mali Bukovec,1951,996,806,0.5105074320861097,0.4131214761660687
HR_00850,VARAŽDINSKA,Martijanec,2738,1823,1532,0.6658144631117604,0.5595325054784515
HR_02607,VARAŽDINSKA,Maruševec,5803,3203,2678,0.5519558848871273,0.46148543856625884
HR_02895,VARAŽDINSKA,Novi Marof,12071,6844,5573,0.5669787093032889,0.4616850302377599
HR_03263,VARAŽDINSKA,Petrijanec,4760,2292,1913,0.4815126050420168,0.401890756302521
HR_04103,VARAŽDINSKA,Sračinec,4736,2555,2164,0.5394847972972973,0.45692567567567566
HR_04375,VARAŽDINSKA,Sveti Đurđ,3364,1807,1376,0.5371581450653984,0.4090368608799049
HR_04383,VARAŽDINSKA,Sveti Ilija,3338,1972,1697,0.5907729179149191,0.5083882564409826
HR_04626,VARAŽDINSKA,Trnovec Bartolovečki,6301,3704,3157,0.5878431994921441,0.5010315822885256
HR_04723,VARAŽDINSKA,Varaždin,46269,27963,24529,0.6043571289632367,0.5301389699366746
HR_04731,VARAŽDINSKA,Varaždinske Toplice,5729,3329,2850,0.5810787222901029,0.4974690172805027
HR_05584,VARAŽDINSKA,Veliki Bukovec,1365,803,643,0.5882783882783883,0.47106227106227105
HR_04847,VARAŽDINSKA,Vidovec,5146,2838,2373,0.5514963078118927,0.4611348620287602
HR_04863,VARAŽDINSKA,Vinica,3095,1813,1504,0.58578352180937,0.4859450726978998
HR_04936,VARAŽDINSKA,Visoko,1366,524,371,0.383601756954612,0.27159590043923865
HR_00566,VIROVITIČKO-PODRAVSKA,Čačinci,2160,1202,944,0.5564814814814815,0.43703703703703706
HR_00574,VIROVITIČKO-PODRAVSKA,Čađavica,1633,845,688,0.5174525413349663,0.421310471524801
HR_00540,VIROVITIČKO-PODRAVSKA,Crnac,1097,593,464,0.5405651777575206,0.422971741112124
HR_01368,VIROVITIČKO-PODRAVSKA,Gradina,2949,1224,940,0.4150559511698881,0.31875211936249576
HR_02453,VIROVITIČKO-PODRAVSKA,Lukač,2894,1402,1113,0.48445058742225294,0.384588804422944
HR_02666,VIROVITIČKO-PODRAVSKA,Mikleuš,1075,638,535,0.5934883720930233,0.49767441860465117
HR_02836,VIROVITIČKO-PODRAVSKA,Nova Bukovica,1339,744,623,0.5556385362210605,0.4652725914861837
HR_03077,VIROVITIČKO-PODRAVSKA,Orahovica,4586,2637,2097,0.5750109027474923,0.4572612298299171
HR_03328,VIROVITIČKO-PODRAVSKA,Pitomača,9051,3701,2604,0.40890509335984976,0.2877030162412993
HR_03956,VIROVITIČKO-PODRAVSKA,Slatina,11925,6577,5343,0.5515303983228511,0.44805031446540883
HR_04073,VIROVITIČKO-PODRAVSKA,Sopje,1949,1024,846,0.5253976398152899,0.4340687532067727
HR_04499,VIROVITIČKO-PODRAVSKA,Špišić Bukovica,3528,1634,1198,0.4631519274376417,0.33956916099773243
HR_04243,VIROVITIČKO-PODRAVSKA,Suhopolje,5478,2500,2011,0.45637093829864916,0.36710478276743336
HR_04910,VIROVITIČKO-PODRAVSKA,Virovitica,19689,10636,8622,0.5402001117375184,0.4379094926100868
HR_04995,VIROVITIČKO-PODRAVSKA,Voćin,1995,711,428,0.35639097744360904,0.21453634085213033
HR_05240,VIROVITIČKO-PODRAVSKA,Zdenci,1495,752,620,0.5030100334448161,0.41471571906354515
HR_00019,VUKOVARSKO-SRIJEMSKA,Andrijaševci,3748,1746,1298,0.4658484525080043,0.3463180362860192
HR_00035,VUKOVARSKO-SRIJEMSKA,Babina Greda,2806,1362,1039,0.48538845331432645,0.37027797576621524
HR_00264,VUKOVARSKO-SRIJEMSKA,Bogdanovci,1525,941,706,0.6170491803278688,0.46295081967213114
HR_00299,VUKOVARSKO-SRIJEMSKA,Borovo,4051,2126,1843,0.5248086892125401,0.454949395211059
HR_00329,VUKOVARSKO-SRIJEMSKA,Bošnjaci,3097,1560,1290,0.5037132709073296,0.41653212786567645
HR_00442,VUKOVARSKO-SRIJEMSKA,Cerna,3834,1760,1376,0.4590505998956703,0.3588941053729786
HR_00922,VUKOVARSKO-SRIJEMSKA,Drenovci,3985,2040,1561,0.5119196988707654,0.3917189460476788
HR_01376,VUKOVARSKO-SRIJEMSKA,Gradište,2255,1155,975,0.5121951219512195,0.43237250554323725
HR_01414,VUKOVARSKO-SRIJEMSKA,Gunja,2769,1592,1414,0.5749368002889129,0.5106536655832431
HR_01546,VUKOVARSKO-SRIJEMSKA,Ilok,5256,3193,2532,0.607496194824962,0.4817351598173516
HR_01597,VUKOVARSKO-SRIJEMSKA,Ivankovo,6870,3112,2387,0.4529839883551674,0.34745269286754005
HR_01660,VUKOVARSKO-SRIJEMSKA,Jarmina,2194,1162,894,0.5296262534184139,0.4074749316317229
HR_02399,VUKOVARSKO-SRIJEMSKA,Lovas,910,631,508,0.6934065934065934,0.5582417582417583
HR_06106,VUKOVARSKO-SRIJEMSKA,Markušica,2009,967,801,0.48133399701343954,0.3987058237929318
HR_06122,VUKOVARSKO-SRIJEMSKA,Negoslavci,1194,578,509,0.48408710217755446,0.42629815745393634
HR_02950,VUKOVARSKO-SRIJEMSKA,Nijemci,3524,1830,1377,0.5192962542565267,0.39074914869466515
HR_02941,VUKOVARSKO-SRIJEMSKA,Nuštar,5121,2440,1923,0.4764694395625854,0.37551259519625074
HR_05355,VUKOVARSKO-SRIJEMSKA,Otok,5056,2403,1763,0.4752768987341772,0.34869462025316456
HR_05835,VUKOVARSKO-SRIJEMSKA,Privlaka,2332,1239,1008,0.5313036020583191,0.4322469982847341
HR_04146,VUKOVARSKO-SRIJEMSKA,Stari Jankovci,3385,1815,1389,0.5361890694239291,0.4103397341211226
HR_04154,VUKOVARSKO-SRIJEMSKA,Stari Mikanovci,2509,1281,1007,0.5105619768832204,0.40135512156237546
HR_06289,VUKOVARSKO-SRIJEMSKA,Štitar,1598,760,597,0.4755944931163955,0.37359198998748433
HR_04561,VUKOVARSKO-SRIJEMSKA,Tompojevci,1080,739,596,0.6842592592592592,0.5518518518518518
HR_04588,VUKOVARSKO-SRIJEMSKA,Tordinci,1632,851,645,0.5214460784313726,0.3952205882352941
HR_04596,VUKOVARSKO-SRIJEMSKA,Tovarnik,1966,1176,965,0.5981688708036622,0.4908443540183113
HR_04642,VUKOVARSKO-SRIJEMSKA,Trpinja,4535,2216,1748,0.4886438809261301,0.3854465270121279
HR_04871,VUKOVARSKO-SRIJEMSKA,Vinkovci,33489,17624,14097,0.5262623548030697,0.420944190629759
HR_05843,VUKOVARSKO-SRIJEMSKA,Vođinci,1747,767,564,0.4390383514596451,0.32283915283342873
HR_05053,VUKOVARSKO-SRIJEMSKA,Vrbanja,3053,1668,1366,0.5463478545692761,0.4474287585981002
HR_05185,VUKOVARSKO-SRIJEMSKA,Vukovar,22401,13694,11343,0.6113119950002232,0.5063613231552163
HR_05347,VUKOVARSKO-SRIJEMSKA,Županja,9558,5692,4791,0.5955220757480645,0.5012554927809165
HR_00175,ZADARSKA,Benkovac,8724,3302,2830,0.37849610270518114,0.3243924805135259
HR_00205,ZADARSKA,Bibinje,4200,1117,910,0.26595238095238094,0.21666666666666667
HR_00221,ZADARSKA,Biograd Na Moru,5878,2352,2030,0.40013610071452876,0.34535556311670634
HR_05711,ZADARSKA,Galovac,1262,436,344,0.34548335974643424,0.27258320126782887
HR_01317,ZADARSKA,Gračac,2873,1443,951,0.502262443438914,0.33101287852419076
HR_01678,ZADARSKA,Jasenice,1362,590,486,0.4331864904552129,0.3568281938325991
HR_01732,ZADARSKA,Kali,1655,1057,858,0.6386706948640484,0.518429003021148
HR_06220,ZADARSKA,Kolan,911,450,411,0.49396267837541163,0.45115257958287597
HR_05720,ZADARSKA,Kukljica,744,497,413,0.668010752688172,0.5551075268817204
HR_02348,ZADARSKA,Lišane Ostrovičke,548,238,203,0.4343065693430657,0.3704379562043796
HR_02828,ZADARSKA,Nin,2943,1396,1152,0.4743459055385661,0.39143730886850153
HR_05371,ZADARSKA,Novigrad,2068,988,814,0.47775628626692457,0.39361702127659576
HR_02968,ZADARSKA,Obrovac,3649,1265,993,0.3466703206357906,0.2721293505069882
HR_03166,ZADARSKA,Pag,3731,1935,1696,0.518627713749665,0.454569820423479
HR_03174,ZADARSKA,Pakoštane,4226,1416,1220,0.33506862281116895,0.28868906767628966
HR_03204,ZADARSKA,Pašman,2317,1166,986,0.5032369443245576,0.4255502805351748
HR_03441,ZADARSKA,Polača,1299,470,392,0.36181678214010776,0.30177059276366436
HR_03450,ZADARSKA,Poličnik,4588,1592,1228,0.3469921534437663,0.26765475152571927
HR_03492,ZADARSKA,Posedarje,3557,1628,1377,0.457689063817824,0.3871239808827664
HR_05738,ZADARSKA,Povljana,756,412,344,0.544973544973545,0.455026455026455
HR_03549,ZADARSKA,Preko,4005,2430,2092,0.6067415730337079,0.5223470661672909
HR_05746,ZADARSKA,Privlaka,2308,1112,917,0.48180242634315423,0.39731369150779894
HR_03719,ZADARSKA,Ražanac,2957,1382,1154,0.4673655732160974,0.39026039905309434
HR_03794,ZADARSKA,Sali,1958,1366,1282,0.6976506639427987,0.6547497446373851
HR_04456,ZADARSKA,Škabrnja,1684,601,488,0.35688836104513066,0.28978622327790976
HR_04111,ZADARSKA,Stankovci,1836,605,471,0.329520697167756,0.2565359477124183
HR_04162,ZADARSKA,Starigrad,1910,851,751,0.4455497382198953,0.3931937172774869
HR_04251,ZADARSKA,Sukošan,4914,1790,1479,0.36426536426536427,0.30097680097680096
HR_04286,ZADARSKA,Sveti Filip I Jakov,4703,1582,1329,0.33638103338294706,0.28258558366999786
HR_05754,ZADARSKA,Tkon,810,286,237,0.3530864197530864,0.29259259259259257
HR_04898,ZADARSKA,Vir,3984,1753,1481,0.44001004016064255,0.3717369477911647
HR_06254,ZADARSKA,Vrsi,2064,820,675,0.39728682170542634,0.32703488372093026
HR_05207,ZADARSKA,Zadar,75627,33262,27906,0.4398164676636651,0.3689952001269388
HR_05258,ZADARSKA,Zemunik Donji,2004,840,685,0.41916167664670656,0.34181636726546905
HR_05509,ZAGREBAČKA,Bedenica,1305,672,529,0.5149425287356322,0.4053639846743295
HR_05479,ZAGREBAČKA,Bistra,6440,3230,2660,0.5015527950310559,0.41304347826086957
HR_00337,ZAGREBAČKA,Brckovljani,6418,2671,2164,0.41617326269866,0.3371766905578062
HR_00345,ZAGREBAČKA,Brdovec,11158,6153,5180,0.5514429109159348,0.4642409033877039
HR_00973,ZAGREBAČKA,Dubrava,4674,2082,1682,0.4454428754813864,0.3598630723149337
HR_05495,ZAGREBAČKA,Dubravica,1279,688,572,0.5379202501954652,0.4472243940578577
HR_01015,ZAGREBAČKA,Dugo Selo,18114,8372,6918,0.46218394611902397,0.3819145412388208
HR_01147,ZAGREBAČKA,Farkaševac,1687,627,515,0.37166567871962064,0.3052756372258447
HR_01350,ZAGREBAČKA,Gradec,3441,1548,1216,0.44986922406277247,0.35338564370822434
HR_01589,ZAGREBAČKA,Ivanić-Grad,13705,7211,5581,0.5261583363735863,0.40722364100693176
HR_01635,ZAGREBAČKA,Jakovlje,3762,1956,1533,0.5199362041467305,0.40749601275917063
HR_01694,ZAGREBAČKA,Jastrebarsko,14996,8250,6746,0.5501467057882102,0.4498532942117898
HR_01902,ZAGREBAČKA,Klinča Sela,5210,2552,2033,0.48982725527831095,0.39021113243761996
HR_01937,ZAGREBAČKA,Kloštar Ivanić,5744,2929,2225,0.5099233983286908,0.38736072423398327
HR_05339,ZAGREBAČKA,Krašić,2311,1010,810,0.4370402423193423,0.35049762007788837
HR_05452,ZAGREBAČKA,Kravarsko,1921,854,676,0.44456012493492975,0.3519000520562207
HR_02135,ZAGREBAČKA,Križ,6254,3418,2643,0.5465302206587784,0.4226095299008634
HR_05487,ZAGREBAČKA,Luka,1340,673,550,0.5022388059701492,0.41044776119402987
HR_05398,ZAGREBAČKA,Marija Gorica,2159,1157,967,0.5358962482630848,0.4478925428439092
HR_05428,ZAGREBAČKA,Orle,1831,861,648,0.4702348443473512,0.3539049699617695
HR_03310,ZAGREBAČKA,Pisarovina,3546,1753,1352,0.4943598420755781,0.38127467569091933
HR_05444,ZAGREBAČKA,Pokupsko,1961,893,692,0.4553799082100969,0.3528811830698623
HR_03565,ZAGREBAČKA,Preseka,1213,432,320,0.35614179719703215,0.26380873866446825
HR_03620,ZAGREBAČKA,Pušća,2713,1437,1158,0.5296719498709915,0.42683376336159234
HR_05363,ZAGREBAČKA,Rakovec,1169,471,356,0.40290846877673225,0.3045337895637297
HR_03760,ZAGREBAČKA,Rugvica,7723,3218,2579,0.4166774569467823,0.33393758901981097
HR_03808,ZAGREBAČKA,Samobor,37905,21865,17846,0.5768368289143913,0.47080860044848966
HR_05517,ZAGREBAČKA,Stupnik,4031,1898,1402,0.4708509054825105,0.3478045150086827
HR_04367,ZAGREBAČKA,Sveta Nedelja,18558,10208,8305,0.5500592736286237,0.44751589610949455
HR_04294,ZAGREBAČKA,Sveti Ivan Zelina,14799,7469,6026,0.5046962632610311,0.40718967497803904
HR_05410,ZAGREBAČKA,Velika Gorica,62550,31609,25828,0.505339728217426,0.41291766586730616
HR_05088,ZAGREBAČKA,Vrbovec,14063,6513,5296,0.46313019981511766,0.376591054540283
HR_05436,ZAGREBAČKA,Zaprešić,25033,14036,11721,0.5606998761634642,0.4682219470299205
HR_05401,ZAGREBAČKA,Žumberak,598,363,303,0.6070234113712375,0.5066889632107023
